\relax 
\providecommand\hyper@newdestlabel[2]{}
\bibstyle{apecon}
\providecommand\HyperFirstAtBeginDocument{\AtBeginDocument}
\HyperFirstAtBeginDocument{\ifx\hyper@anchor\@undefined
\global\let\oldcontentsline\contentsline
\gdef\contentsline#1#2#3#4{\oldcontentsline{#1}{#2}{#3}}
\global\let\oldnewlabel\newlabel
\gdef\newlabel#1#2{\newlabelxx{#1}#2}
\gdef\newlabelxx#1#2#3#4#5#6{\oldnewlabel{#1}{{#2}{#3}}}
\AtEndDocument{\ifx\hyper@anchor\@undefined
\let\contentsline\oldcontentsline
\let\newlabel\oldnewlabel
\fi}
\fi}
\global\let\hyper@last\relax 
\gdef\HyperFirstAtBeginDocument#1{#1}
\providecommand\HyField@AuxAddToFields[1]{}
\providecommand\HyField@AuxAddToCoFields[2]{}
\babel@aux{english}{}
\citation{bojarski2016end}
\citation{miah2015detection}
\citation{johnson2016google}
\citation{tensorflow2015-whitepaper}
\@writefile{toc}{\contentsline {chapter}{\numberline {1}Introduction}{1}{chapter.1}}
\@writefile{lof}{\addvspace {10\p@ }}
\@writefile{lot}{\addvspace {10\p@ }}
\@writefile{toc}{\contentsline {chapter}{\numberline {2}Motivation}{2}{chapter.2}}
\@writefile{lof}{\addvspace {10\p@ }}
\@writefile{lot}{\addvspace {10\p@ }}
\newlabel{chap:chap2}{{2}{2}{Motivation}{chapter.2}{}}
\citation{leshno1993multilayer}
\@writefile{toc}{\contentsline {chapter}{\numberline {3}Feedforward Neural Network}{3}{chapter.3}}
\@writefile{lof}{\addvspace {10\p@ }}
\@writefile{lot}{\addvspace {10\p@ }}
\newlabel{chap:chap3}{{3}{3}{Feedforward Neural Network}{chapter.3}{}}
\@writefile{toc}{\contentsline {section}{\numberline {3.1}Build phase}{3}{section.3.1}}
\newlabel{eq:eq21}{{3.1}{3}{Build phase}{equation.3.1.1}{}}
\citation{clevert2015fast}
\citation{glorot2011deep}
\@writefile{toc}{\contentsline {subsection}{\numberline {3.1.1}Layer}{4}{subsection.3.1.1}}
\newlabel{eq:eq22}{{3.2}{4}{Layer}{equation.3.1.2}{}}
\@writefile{toc}{\contentsline {subsection}{\numberline {3.1.2}Activation functions}{4}{subsection.3.1.2}}
\@writefile{lof}{\contentsline {figure}{\numberline {3.1}{\ignorespaces Rectified Linear Unit(ReLU)\relax }}{5}{figure.caption.4}}
\providecommand*\caption@xref[2]{\@setref\relax\@undefined{#1}}
\newlabel{fig:fig21}{{3.1}{5}{Rectified Linear Unit(ReLU)\relax }{figure.caption.4}{}}
\newlabel{eq:eq23}{{3.3}{5}{Rectified Linear Unit(ReLU)\relax }{equation.3.1.3}{}}
\@writefile{lof}{\contentsline {figure}{\numberline {3.2}{\ignorespaces Exponential Linear Unit(ELU), for different values of $\alpha $\relax }}{5}{figure.caption.5}}
\newlabel{fig:fig22}{{3.2}{5}{Exponential Linear Unit(ELU), for different values of $\alpha $\relax }{figure.caption.5}{}}
\newlabel{eq:eq24}{{3.4}{5}{Exponential Linear Unit(ELU), for different values of $\alpha $\relax }{equation.3.1.4}{}}
\@writefile{lof}{\contentsline {figure}{\numberline {3.3}{\ignorespaces Sigmoid\relax }}{6}{figure.caption.6}}
\newlabel{fig:fig23}{{3.3}{6}{Sigmoid\relax }{figure.caption.6}{}}
\newlabel{eq:eq25}{{3.5}{6}{Sigmoid\relax }{equation.3.1.5}{}}
\newlabel{eq:eq26}{{3.6}{6}{Activation functions}{equation.3.1.6}{}}
\citation{andrew_ng_notes}
\@writefile{toc}{\contentsline {subsection}{\numberline {3.1.3}Cost function}{7}{subsection.3.1.3}}
\newlabel{eq:eq27}{{3.7}{7}{Cost function}{equation.3.1.7}{}}
\newlabel{eq:eq28}{{3.8}{7}{Cost function}{equation.3.1.8}{}}
\newlabel{eq:eq29}{{3.9}{7}{Cost function}{equation.3.1.9}{}}
\@writefile{toc}{\contentsline {section}{\numberline {3.2}Training phase}{7}{section.3.2}}
\citation{ruder2016overview}
\citation{geron2017hands}
\citation{riedmiller1993direct}
\@writefile{toc}{\contentsline {subsection}{\numberline {3.2.1}Gradient descent algorithm}{8}{subsection.3.2.1}}
\newlabel{eq:eq210}{{3.10}{8}{Gradient descent algorithm}{equation.3.2.10}{}}
\citation{PER-GRA:2007}
\@writefile{toc}{\contentsline {chapter}{\numberline {4}The \texttt  {quicknn} package}{9}{chapter.4}}
\@writefile{lof}{\addvspace {10\p@ }}
\@writefile{lot}{\addvspace {10\p@ }}
\newlabel{chap:chap4}{{4}{9}{The \texttt {quicknn} package}{chapter.4}{}}
\citation{geron2017hands}
\@writefile{toc}{\contentsline {section}{\numberline {4.1}Prerequisites}{10}{section.4.1}}
\@writefile{toc}{\contentsline {section}{\numberline {4.2}How to install the package}{10}{section.4.2}}
\citation{Dua:2017}
\@writefile{toc}{\contentsline {section}{\numberline {4.3}How to use the package}{11}{section.4.3}}
\@writefile{toc}{\contentsline {subsection}{\numberline {4.3.1}First example: Description of the parameters}{11}{subsection.4.3.1}}
\newlabel{py1}{{\texttt  {[1]}}{11}{First example: Description of the parameters}{ipythcntr.1}{}}
\newlabel{py2}{{\texttt  {[2]}}{11}{First example: Description of the parameters}{ipythcntr.2}{}}
\newlabel{py3}{{\texttt  {[3]}}{11}{First example: Description of the parameters}{ipythcntr.3}{}}
\newlabel{py4}{{\texttt  {[4]}}{12}{First example: Description of the parameters}{ipythcntr.4}{}}
\citation{pandas_cookbook}
\citation{keskar2016large}
\citation{srivastava2014dropout}
\newlabel{py5}{{\texttt  {[5]}}{15}{First example: Description of the parameters}{ipythcntr.5}{}}
\@writefile{toc}{\contentsline {subsection}{\numberline {4.3.2}Second example: How to stop-resume the training}{15}{subsection.4.3.2}}
\newlabel{py6}{{\texttt  {[6]}}{16}{Second example: How to stop-resume the training}{ipythcntr.6}{}}
\newlabel{py7}{{\texttt  {[7]}}{16}{Second example: How to stop-resume the training}{ipythcntr.7}{}}
\newlabel{py8}{{\texttt  {[8]}}{16}{Second example: How to stop-resume the training}{ipythcntr.8}{}}
\newlabel{py9}{{\texttt  {[9]}}{16}{Second example: How to stop-resume the training}{ipythcntr.9}{}}
\newlabel{py10}{{\texttt  {[10]}}{16}{Second example: How to stop-resume the training}{ipythcntr.10}{}}
\newlabel{py11}{{\texttt  {[11]}}{17}{Second example: How to stop-resume the training}{ipythcntr.11}{}}
\newlabel{py12}{{\texttt  {[12]}}{18}{Second example: How to stop-resume the training}{ipythcntr.12}{}}
\newlabel{py13}{{\texttt  {[13]}}{18}{Second example: How to stop-resume the training}{ipythcntr.13}{}}
\newlabel{py14}{{\texttt  {[14]}}{19}{Second example: How to stop-resume the training}{ipythcntr.14}{}}
\newlabel{py15}{{\texttt  {[15]}}{19}{Second example: How to stop-resume the training}{ipythcntr.15}{}}
\newlabel{py16}{{\texttt  {[16]}}{19}{Second example: How to stop-resume the training}{ipythcntr.16}{}}
\newlabel{py18}{{\texttt  {[17]}}{20}{Second example: How to stop-resume the training}{ipythcntr.17}{}}
\newlabel{py19}{{\texttt  {[18]}}{20}{Second example: How to stop-resume the training}{ipythcntr.18}{}}
\newlabel{py20}{{\texttt  {[19]}}{20}{Second example: How to stop-resume the training}{ipythcntr.19}{}}
\newlabel{py17}{{\texttt  {[20]}}{21}{Second example: How to stop-resume the training}{ipythcntr.20}{}}
\@writefile{toc}{\contentsline {subsection}{\numberline {4.3.3}Visualizing learning curves using Tensorboard}{21}{subsection.4.3.3}}
\@writefile{lof}{\contentsline {figure}{\numberline {4.1}{\ignorespaces Model learning (\texttt  {learning\_rate} set to $0.0001$).\relax }}{22}{figure.caption.8}}
\newlabel{fig:fig31}{{4.1}{22}{Model learning (\texttt {learning\_rate} set to $0.0001$).\relax }{figure.caption.8}{}}
\@writefile{lof}{\contentsline {figure}{\numberline {4.2}{\ignorespaces Model learning comparison (\texttt  {learning\_rate} \leavevmode {\color  {orange}orange}: $0.0001$; \leavevmode {\color  {blue}blue}: $0.0005$).\relax }}{22}{figure.caption.9}}
\newlabel{fig:fig32}{{4.2}{22}{Model learning comparison (\texttt {learning\_rate} \textcolor {orange}{orange}: $0.0001$; \textcolor {blue}{blue}: $0.0005$).\relax }{figure.caption.9}{}}
\@writefile{lof}{\contentsline {figure}{\numberline {4.3}{\ignorespaces Model learning comparison (\texttt  {learning\_rate} \leavevmode {\color  {orange}orange}: $0.0001$; \leavevmode {\color  {blue}blue}: $0.0005$; \leavevmode {\color  {brown}brown}: $0.001$; \leavevmode {\color  {cyan}light blue}: $0.005$; \leavevmode {\color  {pink}Pink}: $0.01$).\relax }}{23}{figure.caption.10}}
\newlabel{fig:fig33}{{4.3}{23}{Model learning comparison (\texttt {learning\_rate} \textcolor {orange}{orange}: $0.0001$; \textcolor {blue}{blue}: $0.0005$; \textcolor {brown}{brown}: $0.001$; \textcolor {cyan}{light blue}: $0.005$; \textcolor {pink}{Pink}: $0.01$).\relax }{figure.caption.10}{}}
\@writefile{lof}{\contentsline {figure}{\numberline {4.4}{\ignorespaces Computational graph displayed using \texttt  {Tensorboard}.\relax }}{23}{figure.caption.11}}
\newlabel{fig:fig34}{{4.4}{23}{Computational graph displayed using \texttt {Tensorboard}.\relax }{figure.caption.11}{}}
\citation{tibshirani1996regression}
\citation{geron2017hands}
\citation{ioffe2015batch}
\@writefile{toc}{\contentsline {chapter}{\numberline {5}Conclusions and future works}{24}{chapter.5}}
\@writefile{lof}{\addvspace {10\p@ }}
\@writefile{lot}{\addvspace {10\p@ }}
\newlabel{chap:chap5}{{5}{24}{Conclusions and future works}{chapter.5}{}}
\citation{Goodfellow-et-al-2016}
\bibdata{../sub_files/bibliography}
\@writefile{toc}{\contentsline {chapter}{Bibliography}{25}{chapter.5}}
\bibcite{tensorflow2015-whitepaper}{{1}{2015}{{Abadi \textit  {et~al.}}}{{Abadi, Agarwal, Barham, Brevdo, Chen, Citro, Corrado, Davis, Dean, Devin, Ghemawat, Goodfellow, Harp, Irving, Isard, Jia, Jozefowicz, Kaiser, Kudlur, Levenberg, Man\'{e}, Monga, Moore, Murray, Olah, Schuster, Shlens, Steiner, Sutskever, Talwar, Tucker, Vanhoucke, Vasudevan, Vi\'{e}gas, Vinyals, Warden, Wattenberg, Wicke, Yu and Zheng}}}
\bibcite{bojarski2016end}{{2}{2016}{{Bojarski \textit  {et~al.}}}{{Bojarski, Del~Testa, Dworakowski, Firner, Flepp, Goyal, Jackel, Monfort, Muller, Zhang \textit  {et~al.}}}}
\bibcite{clevert2015fast}{{3}{2015}{{Clevert \textit  {et~al.}}}{{Clevert, Unterthiner and Hochreiter}}}
\bibcite{Dua:2017}{{4}{2017}{{Dheeru and Karra~Taniskidou}}{{}}}
\bibcite{geron2017hands}{{5}{2017}{{G{\'e}ron}}{{}}}
\bibcite{glorot2011deep}{{6}{2011}{{Glorot \textit  {et~al.}}}{{Glorot, Bordes and Bengio}}}
\bibcite{Goodfellow-et-al-2016}{{7}{2016}{{Goodfellow \textit  {et~al.}}}{{Goodfellow, Bengio and Courville}}}
\bibcite{ioffe2015batch}{{8}{2015}{{Ioffe and Szegedy}}{{}}}
\bibcite{johnson2016google}{{9}{2016}{{Johnson \textit  {et~al.}}}{{Johnson, Schuster, Le, Krikun, Wu, Chen, Thorat, Vi{\'e}gas, Wattenberg, Corrado \textit  {et~al.}}}}
\bibcite{keskar2016large}{{10}{2016}{{Keskar \textit  {et~al.}}}{{Keskar, Mudigere, Nocedal, Smelyanskiy and Tang}}}
\bibcite{leshno1993multilayer}{{11}{1993}{{Leshno \textit  {et~al.}}}{{Leshno, Lin, Pinkus and Schocken}}}
\bibcite{miah2015detection}{{12}{2015}{{Miah and Yousuf}}{{}}}
\bibcite{andrew_ng_notes}{{13}{2017}{{Ng}}{{}}}
\bibcite{PER-GRA:2007}{{14}{2007}{{P\'erez and Granger}}{{}}}
\bibcite{pandas_cookbook}{{15}{2017}{{Petrou}}{{}}}
\bibcite{riedmiller1993direct}{{16}{1993}{{Riedmiller and Braun}}{{}}}
\bibcite{ruder2016overview}{{17}{2016}{{Ruder}}{{}}}
\bibcite{srivastava2014dropout}{{18}{2014}{{Srivastava \textit  {et~al.}}}{{Srivastava, Hinton, Krizhevsky, Sutskever and Salakhutdinov}}}
\bibcite{tibshirani1996regression}{{19}{1996}{{Tibshirani}}{{}}}
\gdef\minted@oldcachelist{,
  default-pyg-prefix.pygstyle,
  default.pygstyle,
  724E6B2D03671518A3B20EC9D2FBA5665B50E77CDF10F9E896809414DE994F4A.pygtex,
  92194F38F3100A391417D81EAA4052715B50E77CDF10F9E896809414DE994F4A.pygtex}
